module gitlab.com/Russi2020QuizGroup/game-svc

go 1.20

require (
	github.com/gorilla/mux v1.8.0
	github.com/jackc/pgx/v4 v4.18.1
	github.com/joho/godotenv v1.5.1
	github.com/spf13/viper v1.16.0
	go.uber.org/fx v1.20.0
	go.uber.org/zap v1.23.0
)

require (
	github.com/fsnotify/fsnotify v1.6.0 // indirect
	github.com/hashicorp/hcl v1.0.0 // indirect
	github.com/jackc/chunkreader/v2 v2.0.1 // indirect
	github.com/jackc/pgconn v1.14.0 // indirect
	github.com/jackc/pgio v1.0.0 // indirect
	github.com/jackc/pgpassfile v1.0.0 // indirect
	github.com/jackc/pgproto3/v2 v2.3.2 // indirect
	github.com/jackc/pgservicefile v0.0.0-20221227161230-091c0ba34f0a // indirect
	github.com/jackc/pgtype v1.14.0 // indirect
	github.com/jackc/puddle v1.3.0 // indirect
	github.com/magiconair/properties v1.8.7 // indirect
	github.com/mitchellh/mapstructure v1.5.0 // indirect
	github.com/pelletier/go-toml/v2 v2.0.8 // indirect
	github.com/spf13/afero v1.9.5 // indirect
	github.com/spf13/cast v1.5.1 // indirect
	github.com/spf13/jwalterweatherman v1.1.0 // indirect
	github.com/spf13/pflag v1.0.5 // indirect
	github.com/subosito/gotenv v1.4.2 // indirect
	go.uber.org/atomic v1.9.0 // indirect
	go.uber.org/dig v1.17.0 // indirect
	go.uber.org/multierr v1.8.0 // indirect
	golang.org/x/crypto v0.9.0 // indirect
	golang.org/x/sys v0.11.0 // indirect
	golang.org/x/text v0.12.0 // indirect
	gopkg.in/ini.v1 v1.67.0 // indirect
	gopkg.in/yaml.v3 v3.0.1 // indirect
)
